0.000000000000000000e+00 1.526058809133246541e+00
4.044943820224719211e+00 1.520941962720826268e+00
8.089887640449438422e+00 1.526058809133246541e+00
1.213483146067415674e+01 1.520941962720826268e+00
1.617977528089887684e+01 1.526058809133246541e+00
2.022471910112359694e+01 1.526058809133246541e+00
2.426966292134831349e+01 1.531175655545666814e+00
2.831460674157303359e+01 1.526058809133246541e+00
3.235955056179775369e+01 1.531175655545666814e+00
3.640449438202247023e+01 1.531175655545666814e+00
4.044943820224719389e+01 1.531175655545666814e+00
4.449438202247191043e+01 1.536292501958087087e+00
4.853932584269662698e+01 1.536292501958087087e+00
5.258426966292135063e+01 1.536292501958087087e+00
5.662921348314606718e+01 1.541409348370507360e+00
6.067415730337079083e+01 1.536292501958087087e+00
6.471910112359550737e+01 1.536292501958087087e+00
6.876404494382022392e+01 1.541409348370507360e+00
7.280898876404494047e+01 1.541409348370507360e+00
7.685393258426967122e+01 1.541409348370507360e+00
8.089887640449438777e+01 1.541409348370507360e+00
8.494382022471910432e+01 1.541409348370507360e+00
8.898876404494382086e+01 1.536292501958087087e+00
9.303370786516853741e+01 1.541409348370507360e+00
9.707865168539325396e+01 1.541409348370507360e+00
1.011235955056179847e+02 1.541409348370507360e+00
1.051685393258427013e+02 1.536292501958087087e+00
1.092134831460674178e+02 1.536292501958087087e+00
1.132584269662921344e+02 1.536292501958087087e+00
1.173033707865168509e+02 1.536292501958087087e+00
1.213483146067415817e+02 1.531175655545666814e+00
1.253932584269662982e+02 1.536292501958087087e+00
1.294382022471910147e+02 1.531175655545666814e+00
1.334831460674157313e+02 1.531175655545666814e+00
1.375280898876404478e+02 1.531175655545666814e+00
1.415730337078651644e+02 1.526058809133246541e+00
1.456179775280898809e+02 1.526058809133246541e+00
1.496629213483145975e+02 1.526058809133246541e+00
1.537078651685393424e+02 1.526058809133246541e+00
1.577528089887640590e+02 1.526058809133246541e+00
1.617977528089887755e+02 1.526058809133246541e+00
1.658426966292134921e+02 1.526058809133246541e+00
1.698876404494382086e+02 1.526058809133246541e+00
1.739325842696629252e+02 1.531175655545666814e+00
1.779775280898876417e+02 1.526058809133246541e+00
1.820224719101123583e+02 1.520941962720826268e+00
1.860674157303370748e+02 1.526058809133246541e+00
1.901123595505617914e+02 1.526058809133246541e+00
1.941573033707865079e+02 1.531175655545666814e+00
1.982022471910112529e+02 1.531175655545666814e+00
2.022471910112359694e+02 1.531175655545666814e+00
2.062921348314606860e+02 1.531175655545666814e+00
2.103370786516854025e+02 1.536292501958087087e+00
2.143820224719101191e+02 1.536292501958087087e+00
2.184269662921348356e+02 1.541409348370507360e+00
2.224719101123595522e+02 1.536292501958087087e+00
2.265168539325842687e+02 1.536292501958087087e+00
2.305617977528089853e+02 1.541409348370507360e+00
2.346067415730337018e+02 1.546526194782927632e+00
2.386516853932584468e+02 1.546526194782927632e+00
2.426966292134831633e+02 1.541409348370507360e+00
2.467415730337078799e+02 1.546526194782927632e+00
2.507865168539325964e+02 1.546526194782927632e+00
2.548314606741573130e+02 1.541409348370507360e+00
2.588764044943820295e+02 1.546526194782927632e+00
2.629213483146067460e+02 1.541409348370507360e+00
2.669662921348314626e+02 1.546526194782927632e+00
2.710112359550561791e+02 1.541409348370507360e+00
2.750561797752808957e+02 1.541409348370507360e+00
2.791011235955056122e+02 1.541409348370507360e+00
2.831460674157303288e+02 1.541409348370507360e+00
2.871910112359550453e+02 1.541409348370507360e+00
2.912359550561797619e+02 1.536292501958087087e+00
2.952808988764044784e+02 1.536292501958087087e+00
2.993258426966291950e+02 1.536292501958087087e+00
3.033707865168539684e+02 1.536292501958087087e+00
3.074157303370786849e+02 1.531175655545666814e+00
3.114606741573034014e+02 1.531175655545666814e+00
3.155056179775281180e+02 1.531175655545666814e+00
3.195505617977528345e+02 1.531175655545666814e+00
3.235955056179775511e+02 1.526058809133246541e+00
3.276404494382022676e+02 1.526058809133246541e+00
3.316853932584269842e+02 1.531175655545666814e+00
3.357303370786517007e+02 1.526058809133246541e+00
3.397752808988764173e+02 1.526058809133246541e+00
3.438202247191011338e+02 1.531175655545666814e+00
3.478651685393258504e+02 1.520941962720826268e+00
3.519101123595505669e+02 1.520941962720826268e+00
3.559550561797752835e+02 1.526058809133246541e+00
3.600000000000000000e+02 1.526058809133246541e+00
