%!PS-Adobe-3.0 EPSF-3.0
%%Title: Iterative.eps
%%Creator: matplotlib version 3.0.2, http://matplotlib.org/
%%CreationDate: Fri Sep 27 15:40:30 2019
%%Orientation: portrait
%%BoundingBox: -54 144 666 648
%%EndComments
%%BeginProlog
/mpldict 8 dict def
mpldict begin
/m { moveto } bind def
/l { lineto } bind def
/r { rlineto } bind def
/c { curveto } bind def
/cl { closepath } bind def
/box {
m
1 index 0 r
0 exch r
neg 0 r
cl
} bind def
/clipbox {
box
clip
newpath
} bind def
%!PS-Adobe-3.0 Resource-Font
%%Title: DejaVu Sans
%%Copyright: Copyright (c) 2003 by Bitstream, Inc. All Rights Reserved. Copyright (c) 2006 by Tavmjong Bah. All Rights Reserved. DejaVu changes are in public domain 
%%Creator: Converted from TrueType to type 3 by PPR
25 dict begin
/_d{bind def}bind def
/_m{moveto}_d
/_l{lineto}_d
/_cl{closepath eofill}_d
/_c{curveto}_d
/_sc{7 -1 roll{setcachedevice}{pop pop pop pop pop pop}ifelse}_d
/_e{exec}_d
/FontName /DejaVuSans def
/PaintType 0 def
/FontMatrix[.001 0 0 .001 0 0]def
/FontBBox[-1021 -463 1793 1232]def
/FontType 3 def
/Encoding [ /space /percent /parenleft /parenright /period /zero /one /two /three /four /five /six /seven /I /M /R /S /a /d /e /f /h /i /l /m /n /o /p /r /t /v ] def
/FontInfo 10 dict dup begin
/FamilyName (DejaVu Sans) def
/FullName (DejaVu Sans) def
/Notice (Copyright (c) 2003 by Bitstream, Inc. All Rights Reserved. Copyright (c) 2006 by Tavmjong Bah. All Rights Reserved. DejaVu changes are in public domain ) def
/Weight (Book) def
/Version (Version 2.35) def
/ItalicAngle 0.0 def
/isFixedPitch false def
/UnderlinePosition -130 def
/UnderlineThickness 90 def
end readonly def
/CharStrings 32 dict dup begin
/.notdef 0 def
/space{318 0 0 0 0 0 _sc
}_d
/percent{{950 0 55 -13 895 742 _sc
727 321 _m
699 321 676 309 660 285 _c
644 261 636 227 636 184 _c
636 142 644 108 660 84 _c
676 60 699 48 727 48 _c
755 48 777 60 793 84 _c
809 108 817 142 817 184 _c
817 226 809 260 793 284 _c
777 308 755 321 727 321 _c
727 383 _m
778 383 819 365 849 329 _c
879 293 895 244 895 184 _c
895 123 879 75 849 40 _c
819 4 778 -13 727 -13 _c
}_e{675 -13 633 4 603 40 _c
573 75 558 123 558 184 _c
558 245 573 293 603 329 _c
633 365 675 383 727 383 _c
223 680 _m
195 680 173 667 157 643 _c
141 619 133 586 133 544 _c
133 500 141 467 157 443 _c
173 419 195 407 223 407 _c
251 407 274 419 290 443 _c
306 467 314 500 314 544 _c
314 586 305 619 289 643 _c
273 667 251 680 223 680 _c
664 742 _m
742 742 _l
286 -13 _l
}_e{208 -13 _l
664 742 _l
223 742 _m
274 742 315 724 346 688 _c
376 652 392 604 392 544 _c
392 482 376 434 346 398 _c
316 362 275 345 223 345 _c
171 345 130 362 100 398 _c
70 434 55 482 55 544 _c
55 604 70 652 100 688 _c
130 724 171 742 223 742 _c
_cl}_e}_d
/parenleft{390 0 86 -131 310 759 _sc
310 759 _m
266 683 234 609 213 536 _c
191 463 181 389 181 314 _c
181 238 191 164 213 91 _c
234 17 266 -56 310 -131 _c
232 -131 _l
183 -54 146 20 122 94 _c
98 168 86 241 86 314 _c
86 386 98 459 122 533 _c
146 607 182 682 232 759 _c
310 759 _l
_cl}_d
/parenright{390 0 80 -131 304 759 _sc
80 759 _m
158 759 _l
206 682 243 607 267 533 _c
291 459 304 386 304 314 _c
304 241 291 168 267 94 _c
243 20 206 -54 158 -131 _c
80 -131 _l
123 -56 155 17 177 91 _c
198 164 209 238 209 314 _c
209 389 198 463 177 536 _c
155 609 123 683 80 759 _c
_cl}_d
/period{318 0 107 0 210 124 _sc
107 124 _m
210 124 _l
210 0 _l
107 0 _l
107 124 _l
_cl}_d
/zero{636 0 66 -13 570 742 _sc
318 664 _m
267 664 229 639 203 589 _c
177 539 165 464 165 364 _c
165 264 177 189 203 139 _c
229 89 267 64 318 64 _c
369 64 407 89 433 139 _c
458 189 471 264 471 364 _c
471 464 458 539 433 589 _c
407 639 369 664 318 664 _c
318 742 _m
399 742 461 709 505 645 _c
548 580 570 486 570 364 _c
570 241 548 147 505 83 _c
461 19 399 -13 318 -13 _c
236 -13 173 19 130 83 _c
87 147 66 241 66 364 _c
66 486 87 580 130 645 _c
173 709 236 742 318 742 _c
_cl}_d
/one{636 0 110 0 544 729 _sc
124 83 _m
285 83 _l
285 639 _l
110 604 _l
110 694 _l
284 729 _l
383 729 _l
383 83 _l
544 83 _l
544 0 _l
124 0 _l
124 83 _l
_cl}_d
/two{{636 0 73 0 536 742 _sc
192 83 _m
536 83 _l
536 0 _l
73 0 _l
73 83 _l
110 121 161 173 226 239 _c
290 304 331 346 348 365 _c
380 400 402 430 414 455 _c
426 479 433 504 433 528 _c
433 566 419 598 392 622 _c
365 646 330 659 286 659 _c
255 659 222 653 188 643 _c
154 632 117 616 78 594 _c
78 694 _l
118 710 155 722 189 730 _c
223 738 255 742 284 742 _c
}_e{359 742 419 723 464 685 _c
509 647 532 597 532 534 _c
532 504 526 475 515 449 _c
504 422 484 390 454 354 _c
446 344 420 317 376 272 _c
332 227 271 164 192 83 _c
_cl}_e}_d
/three{{636 0 76 -13 556 742 _sc
406 393 _m
453 383 490 362 516 330 _c
542 298 556 258 556 212 _c
556 140 531 84 482 45 _c
432 6 362 -13 271 -13 _c
240 -13 208 -10 176 -4 _c
144 1 110 10 76 22 _c
76 117 _l
103 101 133 89 166 81 _c
198 73 232 69 268 69 _c
330 69 377 81 409 105 _c
441 129 458 165 458 212 _c
458 254 443 288 413 312 _c
383 336 341 349 287 349 _c
}_e{202 349 _l
202 430 _l
291 430 _l
339 430 376 439 402 459 _c
428 478 441 506 441 543 _c
441 580 427 609 401 629 _c
374 649 336 659 287 659 _c
260 659 231 656 200 650 _c
169 644 135 635 98 623 _c
98 711 _l
135 721 170 729 203 734 _c
235 739 266 742 296 742 _c
370 742 429 725 473 691 _c
517 657 539 611 539 553 _c
539 513 527 479 504 451 _c
481 423 448 403 406 393 _c
_cl}_e}_d
/four{636 0 49 0 580 729 _sc
378 643 _m
129 254 _l
378 254 _l
378 643 _l
352 729 _m
476 729 _l
476 254 _l
580 254 _l
580 172 _l
476 172 _l
476 0 _l
378 0 _l
378 172 _l
49 172 _l
49 267 _l
352 729 _l
_cl}_d
/five{{636 0 77 -13 549 729 _sc
108 729 _m
495 729 _l
495 646 _l
198 646 _l
198 467 _l
212 472 227 476 241 478 _c
255 480 270 482 284 482 _c
365 482 429 459 477 415 _c
525 370 549 310 549 234 _c
549 155 524 94 475 51 _c
426 8 357 -13 269 -13 _c
238 -13 207 -10 175 -6 _c
143 -1 111 6 77 17 _c
77 116 _l
106 100 136 88 168 80 _c
199 72 232 69 267 69 _c
}_e{323 69 368 83 401 113 _c
433 143 450 183 450 234 _c
450 284 433 324 401 354 _c
368 384 323 399 267 399 _c
241 399 214 396 188 390 _c
162 384 135 375 108 363 _c
108 729 _l
_cl}_e}_d
/six{{636 0 70 -13 573 742 _sc
330 404 _m
286 404 251 388 225 358 _c
199 328 186 286 186 234 _c
186 181 199 139 225 109 _c
251 79 286 64 330 64 _c
374 64 409 79 435 109 _c
461 139 474 181 474 234 _c
474 286 461 328 435 358 _c
409 388 374 404 330 404 _c
526 713 _m
526 623 _l
501 635 476 644 451 650 _c
425 656 400 659 376 659 _c
310 659 260 637 226 593 _c
}_e{192 549 172 482 168 394 _c
187 422 211 444 240 459 _c
269 474 301 482 336 482 _c
409 482 467 459 509 415 _c
551 371 573 310 573 234 _c
573 159 550 99 506 54 _c
462 9 403 -13 330 -13 _c
246 -13 181 19 137 83 _c
92 147 70 241 70 364 _c
70 479 97 571 152 639 _c
206 707 280 742 372 742 _c
396 742 421 739 447 735 _c
472 730 498 723 526 713 _c
_cl}_e}_d
/seven{636 0 82 0 551 729 _sc
82 729 _m
551 729 _l
551 687 _l
286 0 _l
183 0 _l
432 646 _l
82 646 _l
82 729 _l
_cl}_d
/I{295 0 98 0 197 729 _sc
98 729 _m
197 729 _l
197 0 _l
98 0 _l
98 729 _l
_cl}_d
/M{863 0 98 0 765 729 _sc
98 729 _m
245 729 _l
431 233 _l
618 729 _l
765 729 _l
765 0 _l
669 0 _l
669 640 _l
481 140 _l
382 140 _l
194 640 _l
194 0 _l
98 0 _l
98 729 _l
_cl}_d
/R{{695 0 98 0 666 729 _sc
444 342 _m
465 334 486 319 506 296 _c
526 272 546 240 566 199 _c
666 0 _l
560 0 _l
467 187 _l
443 235 419 268 397 284 _c
374 300 343 308 304 308 _c
197 308 _l
197 0 _l
98 0 _l
98 729 _l
321 729 _l
404 729 466 711 507 677 _c
548 642 569 589 569 519 _c
569 473 558 434 537 404 _c
515 374 484 353 444 342 _c
197 648 _m
197 389 _l
321 389 _l
}_e{368 389 404 400 428 422 _c
452 444 465 476 465 519 _c
465 561 452 593 428 615 _c
404 637 368 648 321 648 _c
197 648 _l
_cl}_e}_d
/S{{635 0 66 -13 579 742 _sc
535 705 _m
535 609 _l
497 627 462 640 429 649 _c
395 657 363 662 333 662 _c
279 662 237 651 208 631 _c
179 610 165 580 165 542 _c
165 510 174 485 194 469 _c
213 452 250 439 304 429 _c
364 417 _l
437 403 491 378 526 343 _c
561 307 579 260 579 201 _c
579 130 555 77 508 41 _c
460 5 391 -13 300 -13 _c
265 -13 228 -9 189 -2 _c
}_e{150 5 110 16 69 32 _c
69 134 _l
109 111 148 94 186 83 _c
224 71 262 66 300 66 _c
356 66 399 77 430 99 _c
460 121 476 152 476 194 _c
476 230 465 258 443 278 _c
421 298 385 313 335 323 _c
275 335 _l
201 349 148 372 115 404 _c
82 435 66 478 66 534 _c
66 598 88 649 134 686 _c
179 723 242 742 322 742 _c
356 742 390 739 426 733 _c
461 727 497 717 535 705 _c
}_e{_cl}_e}_d
/a{{613 0 60 -13 522 560 _sc
343 275 _m
270 275 220 266 192 250 _c
164 233 150 205 150 165 _c
150 133 160 107 181 89 _c
202 70 231 61 267 61 _c
317 61 357 78 387 114 _c
417 149 432 196 432 255 _c
432 275 _l
343 275 _l
522 312 _m
522 0 _l
432 0 _l
432 83 _l
411 49 385 25 355 10 _c
325 -5 287 -13 243 -13 _c
187 -13 142 2 109 33 _c
76 64 60 106 60 159 _c
}_e{60 220 80 266 122 298 _c
163 329 224 345 306 345 _c
432 345 _l
432 354 _l
432 395 418 427 391 450 _c
364 472 326 484 277 484 _c
245 484 215 480 185 472 _c
155 464 127 453 100 439 _c
100 522 _l
132 534 164 544 195 550 _c
226 556 256 560 286 560 _c
365 560 424 539 463 498 _c
502 457 522 395 522 312 _c
_cl}_e}_d
/d{{635 0 55 -13 544 760 _sc
454 464 _m
454 760 _l
544 760 _l
544 0 _l
454 0 _l
454 82 _l
435 49 411 25 382 10 _c
353 -5 319 -13 279 -13 _c
213 -13 159 13 117 65 _c
75 117 55 187 55 273 _c
55 359 75 428 117 481 _c
159 533 213 560 279 560 _c
319 560 353 552 382 536 _c
411 520 435 496 454 464 _c
148 273 _m
148 207 161 155 188 117 _c
215 79 253 61 301 61 _c
}_e{348 61 385 79 413 117 _c
440 155 454 207 454 273 _c
454 339 440 390 413 428 _c
385 466 348 485 301 485 _c
253 485 215 466 188 428 _c
161 390 148 339 148 273 _c
_cl}_e}_d
/e{{615 0 55 -13 562 560 _sc
562 296 _m
562 252 _l
149 252 _l
153 190 171 142 205 110 _c
238 78 284 62 344 62 _c
378 62 412 66 444 74 _c
476 82 509 95 541 113 _c
541 28 _l
509 14 476 3 442 -3 _c
408 -9 373 -13 339 -13 _c
251 -13 182 12 131 62 _c
80 112 55 181 55 268 _c
55 357 79 428 127 481 _c
175 533 241 560 323 560 _c
397 560 455 536 498 489 _c
}_e{540 441 562 377 562 296 _c
472 322 _m
471 371 457 410 431 440 _c
404 469 368 484 324 484 _c
274 484 234 469 204 441 _c
174 413 156 373 152 322 _c
472 322 _l
_cl}_e}_d
/f{352 0 23 0 371 760 _sc
371 760 _m
371 685 _l
285 685 _l
253 685 230 678 218 665 _c
205 652 199 629 199 595 _c
199 547 _l
347 547 _l
347 477 _l
199 477 _l
199 0 _l
109 0 _l
109 477 _l
23 477 _l
23 547 _l
109 547 _l
109 585 _l
109 645 123 690 151 718 _c
179 746 224 760 286 760 _c
371 760 _l
_cl}_d
/h{634 0 91 0 549 760 _sc
549 330 _m
549 0 _l
459 0 _l
459 327 _l
459 379 448 417 428 443 _c
408 469 378 482 338 482 _c
289 482 251 466 223 435 _c
195 404 181 362 181 309 _c
181 0 _l
91 0 _l
91 760 _l
181 760 _l
181 462 _l
202 494 227 519 257 535 _c
286 551 320 560 358 560 _c
420 560 468 540 500 501 _c
532 462 549 405 549 330 _c
_cl}_d
/i{278 0 94 0 184 760 _sc
94 547 _m
184 547 _l
184 0 _l
94 0 _l
94 547 _l
94 760 _m
184 760 _l
184 646 _l
94 646 _l
94 760 _l
_cl}_d
/l{278 0 94 0 184 760 _sc
94 760 _m
184 760 _l
184 0 _l
94 0 _l
94 760 _l
_cl}_d
/m{{974 0 91 0 889 560 _sc
520 442 _m
542 482 569 511 600 531 _c
631 550 668 560 711 560 _c
767 560 811 540 842 500 _c
873 460 889 403 889 330 _c
889 0 _l
799 0 _l
799 327 _l
799 379 789 418 771 444 _c
752 469 724 482 686 482 _c
639 482 602 466 575 435 _c
548 404 535 362 535 309 _c
535 0 _l
445 0 _l
445 327 _l
445 379 435 418 417 444 _c
398 469 369 482 331 482 _c
}_e{285 482 248 466 221 435 _c
194 404 181 362 181 309 _c
181 0 _l
91 0 _l
91 547 _l
181 547 _l
181 462 _l
201 495 226 520 255 536 _c
283 552 317 560 357 560 _c
397 560 430 550 458 530 _c
486 510 506 480 520 442 _c
_cl}_e}_d
/n{634 0 91 0 549 560 _sc
549 330 _m
549 0 _l
459 0 _l
459 327 _l
459 379 448 417 428 443 _c
408 469 378 482 338 482 _c
289 482 251 466 223 435 _c
195 404 181 362 181 309 _c
181 0 _l
91 0 _l
91 547 _l
181 547 _l
181 462 _l
202 494 227 519 257 535 _c
286 551 320 560 358 560 _c
420 560 468 540 500 501 _c
532 462 549 405 549 330 _c
_cl}_d
/o{612 0 55 -13 557 560 _sc
306 484 _m
258 484 220 465 192 427 _c
164 389 150 338 150 273 _c
150 207 163 156 191 118 _c
219 80 257 62 306 62 _c
354 62 392 80 420 118 _c
448 156 462 207 462 273 _c
462 337 448 389 420 427 _c
392 465 354 484 306 484 _c
306 560 _m
384 560 445 534 490 484 _c
534 433 557 363 557 273 _c
557 183 534 113 490 63 _c
445 12 384 -13 306 -13 _c
227 -13 165 12 121 63 _c
77 113 55 183 55 273 _c
55 363 77 433 121 484 _c
165 534 227 560 306 560 _c
_cl}_d
/p{{635 0 91 -207 580 560 _sc
181 82 _m
181 -207 _l
91 -207 _l
91 547 _l
181 547 _l
181 464 _l
199 496 223 520 252 536 _c
281 552 316 560 356 560 _c
422 560 476 533 518 481 _c
559 428 580 359 580 273 _c
580 187 559 117 518 65 _c
476 13 422 -13 356 -13 _c
316 -13 281 -5 252 10 _c
223 25 199 49 181 82 _c
487 273 _m
487 339 473 390 446 428 _c
418 466 381 485 334 485 _c
}_e{286 485 249 466 222 428 _c
194 390 181 339 181 273 _c
181 207 194 155 222 117 _c
249 79 286 61 334 61 _c
381 61 418 79 446 117 _c
473 155 487 207 487 273 _c
_cl}_e}_d
/r{411 0 91 0 411 560 _sc
411 463 _m
401 469 390 473 378 476 _c
366 478 353 480 339 480 _c
288 480 249 463 222 430 _c
194 397 181 350 181 288 _c
181 0 _l
91 0 _l
91 547 _l
181 547 _l
181 462 _l
199 495 224 520 254 536 _c
284 552 321 560 365 560 _c
371 560 378 559 386 559 _c
393 558 401 557 411 555 _c
411 463 _l
_cl}_d
/t{392 0 27 0 368 702 _sc
183 702 _m
183 547 _l
368 547 _l
368 477 _l
183 477 _l
183 180 _l
183 135 189 106 201 94 _c
213 81 238 75 276 75 _c
368 75 _l
368 0 _l
276 0 _l
206 0 158 13 132 39 _c
106 65 93 112 93 180 _c
93 477 _l
27 477 _l
27 547 _l
93 547 _l
93 702 _l
183 702 _l
_cl}_d
/v{592 0 30 0 562 547 _sc
30 547 _m
125 547 _l
296 88 _l
467 547 _l
562 547 _l
357 0 _l
235 0 _l
30 547 _l
_cl}_d
end readonly def

/BuildGlyph
 {exch begin
 CharStrings exch
 2 copy known not{pop /.notdef}if
 true 3 1 roll get exec
 end}_d

/BuildChar {
 1 index /Encoding get exch get
 1 index /BuildGlyph get exec
}_d

FontName currentdict end definefont pop
end
%%EndProlog
mpldict begin
-54 144 translate
720 504 0 0 clipbox
gsave
0 0 m
720 0 l
720 504 l
0 504 l
cl
1.000 setgray
fill
grestore
gsave
90 63 m
648 63 l
648 443.52 l
90 443.52 l
cl
1.000 setgray
fill
grestore
2.000 setlinewidth
1 setlinejoin
0 setlinecap
[] 0 setdash
0.000 setgray
gsave
/o {
gsave
newpath
translate
2.0 setlinewidth
1 setlinejoin
0 setlinecap
0 0 m
0 -7 l

gsave
0.000 setgray
fill
grestore
stroke
grestore
} bind def
115.364 63 o
grestore
/DejaVuSans findfont
12.000 scalefont
setfont
gsave
105.816761 43.375000 translate
0.000000 rotate
0.000000 0.000000 m /zero glyphshow
7.634766 0.000000 m /period glyphshow
11.449219 0.000000 m /zero glyphshow
grestore
gsave
/o {
gsave
newpath
translate
2.0 setlinewidth
1 setlinejoin
0 setlinecap
0 0 m
0 -7 l

gsave
0.000 setgray
fill
grestore
stroke
grestore
} bind def
182.11 63 o
grestore
gsave
172.563173 43.375000 translate
0.000000 rotate
0.000000 0.000000 m /two glyphshow
7.634766 0.000000 m /period glyphshow
11.449219 0.000000 m /five glyphshow
grestore
gsave
/o {
gsave
newpath
translate
2.0 setlinewidth
1 setlinejoin
0 setlinecap
0 0 m
0 -7 l

gsave
0.000 setgray
fill
grestore
stroke
grestore
} bind def
248.856 63 o
grestore
gsave
239.309584 43.375000 translate
0.000000 rotate
0.000000 0.000000 m /five glyphshow
7.634766 0.000000 m /period glyphshow
11.449219 0.000000 m /zero glyphshow
grestore
gsave
/o {
gsave
newpath
translate
2.0 setlinewidth
1 setlinejoin
0 setlinecap
0 0 m
0 -7 l

gsave
0.000 setgray
fill
grestore
stroke
grestore
} bind def
315.603 63 o
grestore
gsave
306.055996 43.375000 translate
0.000000 rotate
0.000000 0.000000 m /seven glyphshow
7.634766 0.000000 m /period glyphshow
11.449219 0.000000 m /five glyphshow
grestore
gsave
/o {
gsave
newpath
translate
2.0 setlinewidth
1 setlinejoin
0 setlinecap
0 0 m
0 -7 l

gsave
0.000 setgray
fill
grestore
stroke
grestore
} bind def
382.349 63 o
grestore
gsave
368.982095 43.375000 translate
0.000000 rotate
0.000000 0.000000 m /one glyphshow
7.634766 0.000000 m /zero glyphshow
15.269531 0.000000 m /period glyphshow
19.083984 0.000000 m /zero glyphshow
grestore
gsave
/o {
gsave
newpath
translate
2.0 setlinewidth
1 setlinejoin
0 setlinecap
0 0 m
0 -7 l

gsave
0.000 setgray
fill
grestore
stroke
grestore
} bind def
449.096 63 o
grestore
gsave
435.728506 43.375000 translate
0.000000 rotate
0.000000 0.000000 m /one glyphshow
7.634766 0.000000 m /two glyphshow
15.269531 0.000000 m /period glyphshow
19.083984 0.000000 m /five glyphshow
grestore
gsave
/o {
gsave
newpath
translate
2.0 setlinewidth
1 setlinejoin
0 setlinecap
0 0 m
0 -7 l

gsave
0.000 setgray
fill
grestore
stroke
grestore
} bind def
515.842 63 o
grestore
gsave
502.474918 43.375000 translate
0.000000 rotate
0.000000 0.000000 m /one glyphshow
7.634766 0.000000 m /five glyphshow
15.269531 0.000000 m /period glyphshow
19.083984 0.000000 m /zero glyphshow
grestore
gsave
/o {
gsave
newpath
translate
2.0 setlinewidth
1 setlinejoin
0 setlinecap
0 0 m
0 -7 l

gsave
0.000 setgray
fill
grestore
stroke
grestore
} bind def
582.589 63 o
grestore
gsave
569.221329 43.375000 translate
0.000000 rotate
0.000000 0.000000 m /one glyphshow
7.634766 0.000000 m /seven glyphshow
15.269531 0.000000 m /period glyphshow
19.083984 0.000000 m /five glyphshow
grestore
/DejaVuSans findfont
16.000 scalefont
setfont
gsave
335.046875 24.718750 translate
0.000000 rotate
0.000000 0.000000 m /I glyphshow
4.718750 0.000000 m /t glyphshow
10.992188 0.000000 m /e glyphshow
20.835938 0.000000 m /r glyphshow
27.414062 0.000000 m /a glyphshow
37.218750 0.000000 m /t glyphshow
43.492188 0.000000 m /i glyphshow
47.937500 0.000000 m /o glyphshow
57.726562 0.000000 m /n glyphshow
grestore
gsave
/o {
gsave
newpath
translate
2.0 setlinewidth
1 setlinejoin
0 setlinecap
0 0 m
-7 0 l

gsave
0.000 setgray
fill
grestore
stroke
grestore
} bind def
90 72.281 o
grestore
/DejaVuSans findfont
12.000 scalefont
setfont
gsave
52.765625 67.718476 translate
0.000000 rotate
0.000000 0.000000 m /zero glyphshow
7.634766 0.000000 m /period glyphshow
11.449219 0.000000 m /zero glyphshow
19.083984 0.000000 m /zero glyphshow
grestore
gsave
/o {
gsave
newpath
translate
2.0 setlinewidth
1 setlinejoin
0 setlinecap
0 0 m
-7 0 l

gsave
0.000 setgray
fill
grestore
stroke
grestore
} bind def
90 118.686 o
grestore
gsave
52.765625 114.123354 translate
0.000000 rotate
0.000000 0.000000 m /zero glyphshow
7.634766 0.000000 m /period glyphshow
11.449219 0.000000 m /two glyphshow
19.083984 0.000000 m /five glyphshow
grestore
gsave
/o {
gsave
newpath
translate
2.0 setlinewidth
1 setlinejoin
0 setlinecap
0 0 m
-7 0 l

gsave
0.000 setgray
fill
grestore
stroke
grestore
} bind def
90 165.091 o
grestore
gsave
52.765625 160.528232 translate
0.000000 rotate
0.000000 0.000000 m /zero glyphshow
7.634766 0.000000 m /period glyphshow
11.449219 0.000000 m /five glyphshow
19.083984 0.000000 m /zero glyphshow
grestore
gsave
/o {
gsave
newpath
translate
2.0 setlinewidth
1 setlinejoin
0 setlinecap
0 0 m
-7 0 l

gsave
0.000 setgray
fill
grestore
stroke
grestore
} bind def
90 211.496 o
grestore
gsave
52.765625 206.933110 translate
0.000000 rotate
0.000000 0.000000 m /zero glyphshow
7.634766 0.000000 m /period glyphshow
11.449219 0.000000 m /seven glyphshow
19.083984 0.000000 m /five glyphshow
grestore
gsave
/o {
gsave
newpath
translate
2.0 setlinewidth
1 setlinejoin
0 setlinecap
0 0 m
-7 0 l

gsave
0.000 setgray
fill
grestore
stroke
grestore
} bind def
90 257.9 o
grestore
gsave
52.765625 253.337988 translate
0.000000 rotate
0.000000 0.000000 m /one glyphshow
7.634766 0.000000 m /period glyphshow
11.449219 0.000000 m /zero glyphshow
19.083984 0.000000 m /zero glyphshow
grestore
gsave
/o {
gsave
newpath
translate
2.0 setlinewidth
1 setlinejoin
0 setlinecap
0 0 m
-7 0 l

gsave
0.000 setgray
fill
grestore
stroke
grestore
} bind def
90 304.305 o
grestore
gsave
52.765625 299.742866 translate
0.000000 rotate
0.000000 0.000000 m /one glyphshow
7.634766 0.000000 m /period glyphshow
11.449219 0.000000 m /two glyphshow
19.083984 0.000000 m /five glyphshow
grestore
gsave
/o {
gsave
newpath
translate
2.0 setlinewidth
1 setlinejoin
0 setlinecap
0 0 m
-7 0 l

gsave
0.000 setgray
fill
grestore
stroke
grestore
} bind def
90 350.71 o
grestore
gsave
52.765625 346.147744 translate
0.000000 rotate
0.000000 0.000000 m /one glyphshow
7.634766 0.000000 m /period glyphshow
11.449219 0.000000 m /five glyphshow
19.083984 0.000000 m /zero glyphshow
grestore
gsave
/o {
gsave
newpath
translate
2.0 setlinewidth
1 setlinejoin
0 setlinecap
0 0 m
-7 0 l

gsave
0.000 setgray
fill
grestore
stroke
grestore
} bind def
90 397.115 o
grestore
gsave
52.765625 392.552622 translate
0.000000 rotate
0.000000 0.000000 m /one glyphshow
7.634766 0.000000 m /period glyphshow
11.449219 0.000000 m /seven glyphshow
19.083984 0.000000 m /five glyphshow
grestore
gsave
/o {
gsave
newpath
translate
2.0 setlinewidth
1 setlinejoin
0 setlinecap
0 0 m
-7 0 l

gsave
0.000 setgray
fill
grestore
stroke
grestore
} bind def
90 443.52 o
grestore
gsave
52.765625 438.957500 translate
0.000000 rotate
0.000000 0.000000 m /two glyphshow
7.634766 0.000000 m /period glyphshow
11.449219 0.000000 m /zero glyphshow
19.083984 0.000000 m /zero glyphshow
grestore
/DejaVuSans findfont
16.000 scalefont
setfont
gsave
45.437500 161.892812 translate
90.000000 rotate
0.000000 0.000000 m /R glyphshow
11.117188 0.000000 m /e glyphshow
20.960938 0.000000 m /l glyphshow
25.406250 0.000000 m /a glyphshow
35.210938 0.000000 m /t glyphshow
41.484375 0.000000 m /i glyphshow
45.929688 0.000000 m /v glyphshow
55.398438 0.000000 m /e glyphshow
65.242188 0.000000 m /space glyphshow
70.328125 0.000000 m /R glyphshow
81.445312 0.000000 m /M glyphshow
95.250000 0.000000 m /S glyphshow
105.406250 0.000000 m /space glyphshow
110.492188 0.000000 m /e glyphshow
120.335938 0.000000 m /r glyphshow
126.914062 0.000000 m /r glyphshow
133.492188 0.000000 m /o glyphshow
143.281250 0.000000 m /r glyphshow
149.859375 0.000000 m /space glyphshow
154.945312 0.000000 m /parenleft glyphshow
161.187500 0.000000 m /percent glyphshow
176.390625 0.000000 m /parenright glyphshow
grestore
1.500 setlinewidth
[5.55 2.4] 0 setdash
gsave
558 380.5 90 63 clipbox
115.363636 76.920378 m
142.062201 126.240141 l
168.760766 135.827849 l
195.45933 137.805571 l
222.157895 138.095566 l
248.856459 138.12989 l
275.555024 138.132809 l
302.253589 138.132831 l
328.952153 138.132802 l
355.650718 138.132796 l
382.349282 138.132795 l
409.047847 138.13283 l
435.746411 138.131022 l
462.444976 138.120207 l
489.143541 138.105346 l
515.842105 138.0895 l
542.54067 138.073878 l
569.239234 138.059467 l
595.937799 138.046694 l
622.636364 138.035657 l
stroke
grestore
1.000 setlinewidth
[] 0 setdash
gsave
558 380.5 90 63 clipbox
/o {
gsave
newpath
translate
1.0 setlinewidth
1 setlinejoin
0 setlinecap
0 -3 m
0.795609 -3 1.55874 -2.683901 2.12132 -2.12132 c
2.683901 -1.55874 3 -0.795609 3 0 c
3 0.795609 2.683901 1.55874 2.12132 2.12132 c
1.55874 2.683901 0.795609 3 0 3 c
-0.795609 3 -1.55874 2.683901 -2.12132 2.12132 c
-2.683901 1.55874 -3 0.795609 -3 0 c
-3 -0.795609 -2.683901 -1.55874 -2.12132 -2.12132 c
-1.55874 -2.683901 -0.795609 -3 0 -3 c
cl

gsave
0.000 setgray
fill
grestore
stroke
grestore
} bind def
115.364 76.9204 o
142.062 126.24 o
168.761 135.828 o
195.459 137.806 o
222.158 138.096 o
248.856 138.13 o
275.555 138.133 o
302.254 138.133 o
328.952 138.133 o
355.651 138.133 o
382.349 138.133 o
409.048 138.133 o
435.746 138.131 o
462.445 138.12 o
489.144 138.105 o
515.842 138.089 o
542.541 138.074 o
569.239 138.059 o
595.938 138.047 o
622.636 138.036 o
grestore
1.500 setlinewidth
[5.55 2.4] 0 setdash
1.000 0.000 0.000 setrgbcolor
gsave
558 380.5 90 63 clipbox
115.363636 84.928716 m
142.062201 81.065141 l
168.760766 80.629431 l
195.45933 80.613336 l
222.157895 80.61379 l
248.856459 80.614096 l
275.555024 80.614169 l
302.253589 80.614175 l
328.952153 80.614175 l
355.650718 80.614175 l
382.349282 80.614228 l
409.047847 80.611441 l
435.746411 80.594726 l
462.444976 80.571673 l
489.143541 80.546882 l
515.842105 80.522312 l
542.54067 80.499572 l
569.239234 80.479368 l
595.937799 80.461881 l
622.636364 80.447021 l
stroke
grestore
1.000 setlinewidth
[] 0 setdash
gsave
558 380.5 90 63 clipbox
/o {
gsave
newpath
translate
1.0 setlinewidth
1 setlinejoin
0 setlinecap
0 -3 m
0.795609 -3 1.55874 -2.683901 2.12132 -2.12132 c
2.683901 -1.55874 3 -0.795609 3 0 c
3 0.795609 2.683901 1.55874 2.12132 2.12132 c
1.55874 2.683901 0.795609 3 0 3 c
-0.795609 3 -1.55874 2.683901 -2.12132 2.12132 c
-2.683901 1.55874 -3 0.795609 -3 0 c
-3 -0.795609 -2.683901 -1.55874 -2.12132 -2.12132 c
-1.55874 -2.683901 -0.795609 -3 0 -3 c
cl

gsave
1.000 0.000 0.000 setrgbcolor
fill
grestore
stroke
grestore
} bind def
115.364 84.9287 o
142.062 81.0651 o
168.761 80.6294 o
195.459 80.6133 o
222.158 80.6138 o
248.856 80.6141 o
275.555 80.6142 o
302.254 80.6142 o
328.952 80.6142 o
355.651 80.6142 o
382.349 80.6142 o
409.048 80.6114 o
435.746 80.5947 o
462.445 80.5717 o
489.144 80.5469 o
515.842 80.5223 o
542.541 80.4996 o
569.239 80.4794 o
595.938 80.4619 o
622.636 80.447 o
grestore
1.500 setlinewidth
[5.55 2.4] 0 setdash
0.000 0.000 1.000 setrgbcolor
gsave
558 380.5 90 63 clipbox
115.363636 75.026072 m
142.062201 75.026072 l
168.760766 75.026072 l
195.45933 75.026072 l
222.157895 75.026072 l
248.856459 75.026072 l
275.555024 75.026072 l
302.253589 75.026072 l
328.952153 75.026072 l
355.650718 75.026072 l
382.349282 75.026072 l
409.047847 75.026072 l
435.746411 75.026072 l
462.444976 75.026072 l
489.143541 75.026072 l
515.842105 75.026072 l
542.54067 75.026072 l
569.239234 75.026072 l
595.937799 75.026072 l
622.636364 75.026072 l
stroke
grestore
1.000 setlinewidth
[] 0 setdash
gsave
558 380.5 90 63 clipbox
/o {
gsave
newpath
translate
1.0 setlinewidth
1 setlinejoin
0 setlinecap
0 -3 m
0.795609 -3 1.55874 -2.683901 2.12132 -2.12132 c
2.683901 -1.55874 3 -0.795609 3 0 c
3 0.795609 2.683901 1.55874 2.12132 2.12132 c
1.55874 2.683901 0.795609 3 0 3 c
-0.795609 3 -1.55874 2.683901 -2.12132 2.12132 c
-2.683901 1.55874 -3 0.795609 -3 0 c
-3 -0.795609 -2.683901 -1.55874 -2.12132 -2.12132 c
-1.55874 -2.683901 -0.795609 -3 0 -3 c
cl

gsave
0.000 0.000 1.000 setrgbcolor
fill
grestore
stroke
grestore
} bind def
115.364 75.0261 o
142.062 75.0261 o
168.761 75.0261 o
195.459 75.0261 o
222.158 75.0261 o
248.856 75.0261 o
275.555 75.0261 o
302.254 75.0261 o
328.952 75.0261 o
355.651 75.0261 o
382.349 75.0261 o
409.048 75.0261 o
435.746 75.0261 o
462.445 75.0261 o
489.144 75.0261 o
515.842 75.0261 o
542.541 75.0261 o
569.239 75.0261 o
595.938 75.0261 o
622.636 75.0261 o
grestore
1.500 setlinewidth
[5.55 2.4] 0 setdash
0.000 0.500 0.000 setrgbcolor
gsave
558 380.5 90 63 clipbox
115.363636 75.767425 m
142.062201 78.517362 l
168.760766 78.492831 l
195.45933 78.488715 l
222.157895 78.488146 l
248.856459 78.488083 l
275.555024 78.488078 l
302.253589 78.488078 l
328.952153 78.488078 l
355.650718 78.48812 l
382.349282 79.323923 l
409.047847 80.880675 l
435.746411 82.449895 l
462.444976 83.82905 l
489.143541 84.989348 l
515.842105 85.947616 l
542.54067 86.731742 l
569.239234 87.370082 l
595.937799 87.888143 l
622.636364 88.307769 l
stroke
grestore
1.000 setlinewidth
[] 0 setdash
gsave
558 380.5 90 63 clipbox
/o {
gsave
newpath
translate
1.0 setlinewidth
1 setlinejoin
0 setlinecap
0 -3 m
0.795609 -3 1.55874 -2.683901 2.12132 -2.12132 c
2.683901 -1.55874 3 -0.795609 3 0 c
3 0.795609 2.683901 1.55874 2.12132 2.12132 c
1.55874 2.683901 0.795609 3 0 3 c
-0.795609 3 -1.55874 2.683901 -2.12132 2.12132 c
-2.683901 1.55874 -3 0.795609 -3 0 c
-3 -0.795609 -2.683901 -1.55874 -2.12132 -2.12132 c
-1.55874 -2.683901 -0.795609 -3 0 -3 c
cl

gsave
0.000 0.500 0.000 setrgbcolor
fill
grestore
stroke
grestore
} bind def
115.364 75.7674 o
142.062 78.5174 o
168.761 78.4928 o
195.459 78.4887 o
222.158 78.4881 o
248.856 78.4881 o
275.555 78.4881 o
302.254 78.4881 o
328.952 78.4881 o
355.651 78.4881 o
382.349 79.3239 o
409.048 80.8807 o
435.746 82.4499 o
462.445 83.8291 o
489.144 84.9893 o
515.842 85.9476 o
542.541 86.7317 o
569.239 87.3701 o
595.938 87.8881 o
622.636 88.3078 o
grestore
1.500 setlinewidth
[5.55 2.4] 0 setdash
0.750 0.000 0.750 setrgbcolor
gsave
558 380.5 90 63 clipbox
115.363636 77.977662 m
142.062201 389.950347 l
168.760766 77.981508 l
195.45933 77.977273 l
222.157895 77.976676 l
248.856459 77.976608 l
275.555024 77.976603 l
302.253589 77.976603 l
328.952153 77.976603 l
355.650718 77.976598 l
382.349282 77.995171 l
409.047847 78.049096 l
435.746411 78.073173 l
462.444976 78.07897 l
489.143541 78.08457 l
515.842105 78.08982 l
542.54067 78.094616 l
569.239234 78.098899 l
595.937799 78.102648 l
622.636364 78.183869 l
stroke
grestore
1.000 setlinewidth
[] 0 setdash
gsave
558 380.5 90 63 clipbox
/o {
gsave
newpath
translate
1.0 setlinewidth
1 setlinejoin
0 setlinecap
0 -3 m
0.795609 -3 1.55874 -2.683901 2.12132 -2.12132 c
2.683901 -1.55874 3 -0.795609 3 0 c
3 0.795609 2.683901 1.55874 2.12132 2.12132 c
1.55874 2.683901 0.795609 3 0 3 c
-0.795609 3 -1.55874 2.683901 -2.12132 2.12132 c
-2.683901 1.55874 -3 0.795609 -3 0 c
-3 -0.795609 -2.683901 -1.55874 -2.12132 -2.12132 c
-1.55874 -2.683901 -0.795609 -3 0 -3 c
cl

gsave
0.750 0.000 0.750 setrgbcolor
fill
grestore
stroke
grestore
} bind def
115.364 77.9777 o
142.062 389.95 o
168.761 77.9815 o
195.459 77.9773 o
222.158 77.9767 o
248.856 77.9766 o
275.555 77.9766 o
302.254 77.9766 o
328.952 77.9766 o
355.651 77.9766 o
382.349 77.9952 o
409.048 78.0491 o
435.746 78.0732 o
462.445 78.079 o
489.144 78.0846 o
515.842 78.0898 o
542.541 78.0946 o
569.239 78.0989 o
595.938 78.1026 o
622.636 78.1839 o
grestore
1.500 setlinewidth
[5.55 2.4] 0 setdash
0.000 0.750 0.750 setrgbcolor
gsave
558 380.5 90 63 clipbox
154.039174 505 m
168.760766 133.726162 l
195.45933 133.51137 l
222.157895 133.486263 l
248.856459 129.077076 l
275.555024 128.915872 l
302.253589 129.078247 l
328.952153 129.488071 l
355.650718 129.640915 l
382.349282 130.685642 l
409.047847 130.862957 l
435.746411 135.739572 l
462.444976 141.32669 l
489.143541 148.119729 l
515.842105 155.041053 l
542.54067 161.735382 l
569.239234 167.178171 l
595.937799 171.891726 l
622.636364 176.103689 l
stroke
grestore
1.000 setlinewidth
[] 0 setdash
gsave
558 380.5 90 63 clipbox
/o {
gsave
newpath
translate
1.0 setlinewidth
1 setlinejoin
0 setlinecap
0 -3 m
0.795609 -3 1.55874 -2.683901 2.12132 -2.12132 c
2.683901 -1.55874 3 -0.795609 3 0 c
3 0.795609 2.683901 1.55874 2.12132 2.12132 c
1.55874 2.683901 0.795609 3 0 3 c
-0.795609 3 -1.55874 2.683901 -2.12132 2.12132 c
-2.683901 1.55874 -3 0.795609 -3 0 c
-3 -0.795609 -2.683901 -1.55874 -2.12132 -2.12132 c
-1.55874 -2.683901 -0.795609 -3 0 -3 c
cl

gsave
0.000 0.750 0.750 setrgbcolor
fill
grestore
stroke
grestore
} bind def
154.039 505 o
168.761 133.726 o
195.459 133.511 o
222.158 133.486 o
248.856 129.077 o
275.555 128.916 o
302.254 129.078 o
328.952 129.488 o
355.651 129.641 o
382.349 130.686 o
409.048 130.863 o
435.746 135.74 o
462.445 141.327 o
489.144 148.12 o
515.842 155.041 o
542.541 161.735 o
569.239 167.178 o
595.938 171.892 o
622.636 176.104 o
grestore
2.000 setlinewidth
0 setlinejoin
2 setlinecap
[] 0 setdash
0.000 setgray
gsave
90 63 m
90 443.52 l
stroke
grestore
gsave
648 63 m
648 443.52 l
stroke
grestore
gsave
90 63 m
648 63 l
stroke
grestore
gsave
90 443.52 m
648 443.52 l
stroke
grestore
/DejaVuSans findfont
20.000 scalefont
setfont
gsave
271.742188 449.520000 translate
0.000000 rotate
0.000000 0.000000 m /I glyphshow
5.898438 0.000000 m /t glyphshow
13.740234 0.000000 m /e glyphshow
26.044922 0.000000 m /r glyphshow
34.267578 0.000000 m /a glyphshow
46.523438 0.000000 m /t glyphshow
54.365234 0.000000 m /i glyphshow
59.921875 0.000000 m /v glyphshow
71.757812 0.000000 m /e glyphshow
84.062500 0.000000 m /space glyphshow
90.419922 0.000000 m /f glyphshow
97.460938 0.000000 m /i glyphshow
103.017578 0.000000 m /t glyphshow
110.859375 0.000000 m /space glyphshow
117.216797 0.000000 m /m glyphshow
136.699219 0.000000 m /e glyphshow
149.003906 0.000000 m /t glyphshow
156.845703 0.000000 m /h glyphshow
169.521484 0.000000 m /o glyphshow
181.757812 0.000000 m /d glyphshow
grestore
1.000 setlinewidth
0 setlinecap
0.800 setgray
gsave
562.403125 328.17 m
639.6 328.17 l
641.2 328.17 642 328.97 642 330.57 c
642 435.12 l
642 436.72 641.2 437.52 639.6 437.52 c
562.403125 437.52 l
560.803125 437.52 560.003125 436.72 560.003125 435.12 c
560.003125 330.57 l
560.003125 328.97 560.803125 328.17 562.403125 328.17 c
cl
gsave
1.000 setgray
fill
grestore
stroke
grestore
1.500 setlinewidth
1 setlinejoin
[5.55 2.4] 0 setdash
0.000 setgray
gsave
564.803125 427.795 m
588.803125 427.795 l
stroke
grestore
1.000 setlinewidth
[] 0 setdash
gsave
/o {
gsave
newpath
translate
1.0 setlinewidth
1 setlinejoin
0 setlinecap
0 -3 m
0.795609 -3 1.55874 -2.683901 2.12132 -2.12132 c
2.683901 -1.55874 3 -0.795609 3 0 c
3 0.795609 2.683901 1.55874 2.12132 2.12132 c
1.55874 2.683901 0.795609 3 0 3 c
-0.795609 3 -1.55874 2.683901 -2.12132 2.12132 c
-2.683901 1.55874 -3 0.795609 -3 0 c
-3 -0.795609 -2.683901 -1.55874 -2.12132 -2.12132 c
-1.55874 -2.683901 -0.795609 -3 0 -3 c
cl

gsave
0.000 setgray
fill
grestore
stroke
grestore
} bind def
576.803 427.795 o
grestore
/DejaVuSans findfont
12.000 scalefont
setfont
gsave
598.403125 423.595000 translate
0.000000 rotate
0.000000 0.000000 m /S glyphshow
7.617188 0.000000 m /t glyphshow
12.322266 0.000000 m /e glyphshow
19.705078 0.000000 m /p glyphshow
27.322266 0.000000 m /space glyphshow
31.136719 0.000000 m /one glyphshow
grestore
1.500 setlinewidth
[5.55 2.4] 0 setdash
1.000 0.000 0.000 setrgbcolor
gsave
564.803125 410.17 m
588.803125 410.17 l
stroke
grestore
1.000 setlinewidth
[] 0 setdash
gsave
/o {
gsave
newpath
translate
1.0 setlinewidth
1 setlinejoin
0 setlinecap
0 -3 m
0.795609 -3 1.55874 -2.683901 2.12132 -2.12132 c
2.683901 -1.55874 3 -0.795609 3 0 c
3 0.795609 2.683901 1.55874 2.12132 2.12132 c
1.55874 2.683901 0.795609 3 0 3 c
-0.795609 3 -1.55874 2.683901 -2.12132 2.12132 c
-2.683901 1.55874 -3 0.795609 -3 0 c
-3 -0.795609 -2.683901 -1.55874 -2.12132 -2.12132 c
-1.55874 -2.683901 -0.795609 -3 0 -3 c
cl

gsave
1.000 0.000 0.000 setrgbcolor
fill
grestore
stroke
grestore
} bind def
576.803 410.17 o
grestore
0.000 setgray
gsave
598.403125 405.970000 translate
0.000000 rotate
0.000000 0.000000 m /S glyphshow
7.617188 0.000000 m /t glyphshow
12.322266 0.000000 m /e glyphshow
19.705078 0.000000 m /p glyphshow
27.322266 0.000000 m /space glyphshow
31.136719 0.000000 m /two glyphshow
grestore
1.500 setlinewidth
[5.55 2.4] 0 setdash
0.000 0.000 1.000 setrgbcolor
gsave
564.803125 392.545 m
588.803125 392.545 l
stroke
grestore
1.000 setlinewidth
[] 0 setdash
gsave
/o {
gsave
newpath
translate
1.0 setlinewidth
1 setlinejoin
0 setlinecap
0 -3 m
0.795609 -3 1.55874 -2.683901 2.12132 -2.12132 c
2.683901 -1.55874 3 -0.795609 3 0 c
3 0.795609 2.683901 1.55874 2.12132 2.12132 c
1.55874 2.683901 0.795609 3 0 3 c
-0.795609 3 -1.55874 2.683901 -2.12132 2.12132 c
-2.683901 1.55874 -3 0.795609 -3 0 c
-3 -0.795609 -2.683901 -1.55874 -2.12132 -2.12132 c
-1.55874 -2.683901 -0.795609 -3 0 -3 c
cl

gsave
0.000 0.000 1.000 setrgbcolor
fill
grestore
stroke
grestore
} bind def
576.803 392.545 o
grestore
0.000 setgray
gsave
598.403125 388.345000 translate
0.000000 rotate
0.000000 0.000000 m /S glyphshow
7.617188 0.000000 m /t glyphshow
12.322266 0.000000 m /e glyphshow
19.705078 0.000000 m /p glyphshow
27.322266 0.000000 m /space glyphshow
31.136719 0.000000 m /three glyphshow
grestore
1.500 setlinewidth
[5.55 2.4] 0 setdash
0.000 0.500 0.000 setrgbcolor
gsave
564.803125 374.92 m
588.803125 374.92 l
stroke
grestore
1.000 setlinewidth
[] 0 setdash
gsave
/o {
gsave
newpath
translate
1.0 setlinewidth
1 setlinejoin
0 setlinecap
0 -3 m
0.795609 -3 1.55874 -2.683901 2.12132 -2.12132 c
2.683901 -1.55874 3 -0.795609 3 0 c
3 0.795609 2.683901 1.55874 2.12132 2.12132 c
1.55874 2.683901 0.795609 3 0 3 c
-0.795609 3 -1.55874 2.683901 -2.12132 2.12132 c
-2.683901 1.55874 -3 0.795609 -3 0 c
-3 -0.795609 -2.683901 -1.55874 -2.12132 -2.12132 c
-1.55874 -2.683901 -0.795609 -3 0 -3 c
cl

gsave
0.000 0.500 0.000 setrgbcolor
fill
grestore
stroke
grestore
} bind def
576.803 374.92 o
grestore
0.000 setgray
gsave
598.403125 370.720000 translate
0.000000 rotate
0.000000 0.000000 m /S glyphshow
7.617188 0.000000 m /t glyphshow
12.322266 0.000000 m /e glyphshow
19.705078 0.000000 m /p glyphshow
27.322266 0.000000 m /space glyphshow
31.136719 0.000000 m /four glyphshow
grestore
1.500 setlinewidth
[5.55 2.4] 0 setdash
0.750 0.000 0.750 setrgbcolor
gsave
564.803125 357.295 m
588.803125 357.295 l
stroke
grestore
1.000 setlinewidth
[] 0 setdash
gsave
/o {
gsave
newpath
translate
1.0 setlinewidth
1 setlinejoin
0 setlinecap
0 -3 m
0.795609 -3 1.55874 -2.683901 2.12132 -2.12132 c
2.683901 -1.55874 3 -0.795609 3 0 c
3 0.795609 2.683901 1.55874 2.12132 2.12132 c
1.55874 2.683901 0.795609 3 0 3 c
-0.795609 3 -1.55874 2.683901 -2.12132 2.12132 c
-2.683901 1.55874 -3 0.795609 -3 0 c
-3 -0.795609 -2.683901 -1.55874 -2.12132 -2.12132 c
-1.55874 -2.683901 -0.795609 -3 0 -3 c
cl

gsave
0.750 0.000 0.750 setrgbcolor
fill
grestore
stroke
grestore
} bind def
576.803 357.295 o
grestore
0.000 setgray
gsave
598.403125 353.095000 translate
0.000000 rotate
0.000000 0.000000 m /S glyphshow
7.617188 0.000000 m /t glyphshow
12.322266 0.000000 m /e glyphshow
19.705078 0.000000 m /p glyphshow
27.322266 0.000000 m /space glyphshow
31.136719 0.000000 m /five glyphshow
grestore
1.500 setlinewidth
[5.55 2.4] 0 setdash
0.000 0.750 0.750 setrgbcolor
gsave
564.803125 339.67 m
588.803125 339.67 l
stroke
grestore
1.000 setlinewidth
[] 0 setdash
gsave
/o {
gsave
newpath
translate
1.0 setlinewidth
1 setlinejoin
0 setlinecap
0 -3 m
0.795609 -3 1.55874 -2.683901 2.12132 -2.12132 c
2.683901 -1.55874 3 -0.795609 3 0 c
3 0.795609 2.683901 1.55874 2.12132 2.12132 c
1.55874 2.683901 0.795609 3 0 3 c
-0.795609 3 -1.55874 2.683901 -2.12132 2.12132 c
-2.683901 1.55874 -3 0.795609 -3 0 c
-3 -0.795609 -2.683901 -1.55874 -2.12132 -2.12132 c
-1.55874 -2.683901 -0.795609 -3 0 -3 c
cl

gsave
0.000 0.750 0.750 setrgbcolor
fill
grestore
stroke
grestore
} bind def
576.803 339.67 o
grestore
0.000 setgray
gsave
598.403125 335.470000 translate
0.000000 rotate
0.000000 0.000000 m /S glyphshow
7.617188 0.000000 m /t glyphshow
12.322266 0.000000 m /e glyphshow
19.705078 0.000000 m /p glyphshow
27.322266 0.000000 m /space glyphshow
31.136719 0.000000 m /six glyphshow
grestore

end
showpage
